{"photos":{"page":1,"pages":5846,"perpage":100,"total":"584587","photo":[{"id":"32402855797","owner":"23661161@N02","secret":"4a7cd652d0","server":"7833","farm":8,"title":"G08A8836.jpg","ispublic":1,"isfriend":0,"isfamily":0},{"id":"33468754858","owner":"23661161@N02","secret":"d1dd9cbf62","server":"7807","farm":8,"title":"G08A8825.jpg","ispublic":1,"isfriend":0,"isfamily":0},{"id":"33468719378","owner":"97343826@N08","secret":"5546952ee2","server":"7858","farm":8,"title":"sunday in february","ispublic":1,"isfriend":0,"isfamily":0},{"id":"46621510974","owner":"23661161@N02","secret":"4940dcb9ff","server":"7908","farm":8,"title":"G08A8766.jpg","ispublic":1,"isfriend":0,"isfamily":0},{"id":"40379431903","owner":"76704261@N03","secret":"e21c67bd31","server":"7917","farm":8,"title":"Locket","ispublic":1,"isfriend":0,"isfamily":0},{"id":"40379431093","owner":"76704261@N03","secret":"9419e70734","server":"7825","farm":8,"title":"Nova","ispublic":1,"isfriend":0,"isfamily":0},{"id":"40379430433","owner":"76704261@N03","secret":"5dbe64421d","server":"7905","farm":8,"title":"Nova","ispublic":1,"isfriend":0,"isfamily":0},{"id":"40379429543","owner":"76704261@N03","secret":"6813a63d28","server":"7811","farm":8,"title":"Nova","ispublic":1,"isfriend":0,"isfamily":0},{"id":"40379429233","owner":"76704261@N03","secret":"f837d260c4","server":"7909","farm":8,"title":"Nova","ispublic":1,"isfriend":0,"isfamily":0},{"id":"40379429123","owner":"76704261@N03","secret":"2d08899b2f","server":"7904","farm":8,"title":"Nova","ispublic":1,"isfriend":0,"isfamily":0},{"id":"40379428753","owner":"76704261@N03","secret":"452b961721","server":"7836","farm":8,"title":"Nova","ispublic":1,"isfriend":0,"isfamily":0},{"id":"40379428053","owner":"76704261@N03","secret":"da181fe83f","server":"7803","farm":8,"title":"Olivia","ispublic":1,"isfriend":0,"isfamily":0},{"id":"40379427503","owner":"76704261@N03","secret":"594cbbbe33","server":"7877","farm":8,"title":"Olivia","ispublic":1,"isfriend":0,"isfamily":0},{"id":"40379427243","owner":"76704261@N03","secret":"e196b587de","server":"7927","farm":8,"title":"Purdy","ispublic":1,"isfriend":0,"isfamily":0},{"id":"40379427143","owner":"76704261@N03","secret":"96bdc69440","server":"7840","farm":8,"title":"Purdy","ispublic":1,"isfriend":0,"isfamily":0},{"id":"40379427013","owner":"76704261@N03","secret":"f15972d07a","server":"7912","farm":8,"title":"Roxy","ispublic":1,"isfriend":0,"isfamily":0},{"id":"40379426823","owner":"76704261@N03","secret":"4e983a5660","server":"7920","farm":8,"title":"Roxy","ispublic":1,"isfriend":0,"isfamily":0},{"id":"40379426683","owner":"76704261@N03","secret":"d4be15a09f","server":"7885","farm":8,"title":"Roxy","ispublic":1,"isfriend":0,"isfamily":0},{"id":"40379426523","owner":"76704261@N03","secret":"1a453bb916","server":"7808","farm":8,"title":"Roxy","ispublic":1,"isfriend":0,"isfamily":0},{"id":"40379426333","owner":"76704261@N03","secret":"ee6746baf1","server":"7861","farm":8,"title":"Roxy","ispublic":1,"isfriend":0,"isfamily":0},{"id":"40379426143","owner":"76704261@N03","secret":"e5e745e452","server":"7884","farm":8,"title":"Ryder","ispublic":1,"isfriend":0,"isfamily":0},{"id":"40379425893","owner":"76704261@N03","secret":"92a3a1df7c","server":"7896","farm":8,"title":"Sherman","ispublic":1,"isfriend":0,"isfamily":0},{"id":"40379425563","owner":"76704261@N03","secret":"8a122a3db8","server":"7924","farm":8,"title":"Sherman","ispublic":1,"isfriend":0,"isfamily":0},{"id":"40379425113","owner":"76704261@N03","secret":"3d3b13f426","server":"7858","farm":8,"title":"Sherman","ispublic":1,"isfriend":0,"isfamily":0},{"id":"40379424643","owner":"76704261@N03","secret":"e7420c2cb4","server":"7892","farm":8,"title":"Sherman","ispublic":1,"isfriend":0,"isfamily":0},{"id":"40379424303","owner":"76704261@N03","secret":"a2dd63bd19","server":"7888","farm":8,"title":"Shaggy and Lisi","ispublic":1,"isfriend":0,"isfamily":0},{"id":"47292043142","owner":"76704261@N03","secret":"2636880131","server":"7860","farm":8,"title":"Sherman","ispublic":1,"isfriend":0,"isfamily":0},{"id":"46429575365","owner":"156039621@N02","secret":"9ef9d48317","server":"7883","farm":8,"title":"Dogs And Dunkin Donuts Make Me Happy Humans Make My Head Hurt Shirt","ispublic":1,"isfriend":0,"isfamily":0},{"id":"40379352293","owner":"67296015@N00","secret":"5ed44600d3","server":"7906","farm":8,"title":"10\/52 | pausing to smell the flowers","ispublic":1,"isfriend":0,"isfamily":0},{"id":"40379253513","owner":"61177627@N00","secret":"832fc86702","server":"7844","farm":8,"title":"Pietus, vaiku desreles, hot dogs, hand-drawn lunch menu, Lithuanian Scouts Saint Casimir Festival, Williamsburg, Brooklyn","ispublic":1,"isfriend":0,"isfamily":0},{"id":"47344552091","owner":"145173915@N02","secret":"1635d30833","server":"7820","farm":8,"title":"Red Fang - Prehistoric Dog [metal \/ stoner rock]","ispublic":1,"isfriend":0,"isfamily":0},{"id":"33468478608","owner":"113089576@N07","secret":"aece48270c","server":"7922","farm":8,"title":"(10 of 52) Run Like a Dog - North Bonneville, WA","ispublic":1,"isfriend":0,"isfamily":0},{"id":"46429566875","owner":"158089198@N02","secret":"1ca56353e2","server":"7846","farm":8,"title":"Dog don\u2019t want to walk down this street. He sees something","ispublic":1,"isfriend":0,"isfamily":0},{"id":"40379217483","owner":"32865643@N07","secret":"d19e8b563d","server":"7873","farm":8,"title":"Deer dog Alebrije","ispublic":1,"isfriend":0,"isfamily":0},{"id":"46429478755","owner":"91396833@N00","secret":"bcd874717d","server":"7883","farm":8,"title":"Morley's Dog interpretative sign","ispublic":1,"isfriend":0,"isfamily":0},{"id":"46429477535","owner":"91396833@N00","secret":"506352855b","server":"7891","farm":8,"title":"Morley's Dog","ispublic":1,"isfriend":0,"isfamily":0},{"id":"46621017714","owner":"62670252@N05","secret":"580c898253","server":"7854","farm":8,"title":"10\/52 Is there something on your nose, Dunkel?","ispublic":1,"isfriend":0,"isfamily":0},{"id":"46619822064","owner":"58234771@N04","secret":"6aae4d59e1","server":"7836","farm":8,"title":"Penthouse Chronicles|| LOTD 001","ispublic":1,"isfriend":0,"isfamily":0},{"id":"33468253808","owner":"24877672@N06","secret":"c41416c6db","server":"7868","farm":8,"title":"away 10.52","ispublic":1,"isfriend":0,"isfamily":0},{"id":"46620975304","owner":"66322040@N03","secret":"d7fd9c71da","server":"7867","farm":8,"title":"Frame Within a Frame 03-10-19 (week 10\/52)","ispublic":1,"isfriend":0,"isfamily":0},{"id":"47291553332","owner":"13773319@N00","secret":"ba1e712411","server":"7894","farm":8,"title":"10\/52\/19 When the Eagles Sh*ts","ispublic":1,"isfriend":0,"isfamily":0},{"id":"33468173528","owner":"170422078@N08","secret":"6fd2cf702d","server":"7837","farm":8,"title":"yves_dog","ispublic":1,"isfriend":0,"isfamily":0},{"id":"46429288775","owner":"56218767@N07","secret":"6015270b91","server":"7830","farm":8,"title":"Early Morning Walk","ispublic":1,"isfriend":0,"isfamily":0},{"id":"46620917104","owner":"62670252@N05","secret":"2696d79c08","server":"7853","farm":8,"title":"3\/12 2019  Stinky Rylee","ispublic":1,"isfriend":0,"isfamily":0},{"id":"32401914747","owner":"95063630@N08","secret":"57cea9f2c2","server":"7904","farm":8,"title":"Rufus Thomas","ispublic":1,"isfriend":0,"isfamily":0},{"id":"47291710622","owner":"145274856@N04","secret":"f5fee6fd87","server":"7809","farm":8,"title":"Trig-edit","ispublic":1,"isfriend":0,"isfamily":0},{"id":"47291491362","owner":"97217080@N00","secret":"ef94a51409","server":"7912","farm":8,"title":"IMG_20180127_154457","ispublic":1,"isfriend":0,"isfamily":0},{"id":"47291491062","owner":"97217080@N00","secret":"d756ba1cc3","server":"7819","farm":8,"title":"IMG_20180214_172610","ispublic":1,"isfriend":0,"isfamily":0},{"id":"47291490452","owner":"97217080@N00","secret":"332cc79be9","server":"7830","farm":8,"title":"IMG_20180214_172612","ispublic":1,"isfriend":0,"isfamily":0},{"id":"47291490352","owner":"97217080@N00","secret":"6b19bd5279","server":"7865","farm":8,"title":"IMG_20180214_172619","ispublic":1,"isfriend":0,"isfamily":0},{"id":"47291490262","owner":"97217080@N00","secret":"5780e65b1a","server":"7862","farm":8,"title":"IMG_20180215_124139","ispublic":1,"isfriend":0,"isfamily":0},{"id":"47291490112","owner":"97217080@N00","secret":"a868c3ce78","server":"7818","farm":8,"title":"IMG_20180215_124149","ispublic":1,"isfriend":0,"isfamily":0},{"id":"47291489922","owner":"97217080@N00","secret":"602dc9feba","server":"7908","farm":8,"title":"IMG_20180218_163405","ispublic":1,"isfriend":0,"isfamily":0},{"id":"46429225185","owner":"97217080@N00","secret":"28d89cbb08","server":"7826","farm":8,"title":"IMG_20180405_165838","ispublic":1,"isfriend":0,"isfamily":0},{"id":"47291489582","owner":"97217080@N00","secret":"3dbae7375d","server":"7889","farm":8,"title":"IMG_20180405_165839","ispublic":1,"isfriend":0,"isfamily":0},{"id":"46429224855","owner":"97217080@N00","secret":"4799fd2876","server":"7912","farm":8,"title":"IMG_20180616_075941","ispublic":1,"isfriend":0,"isfamily":0},{"id":"47291489132","owner":"97217080@N00","secret":"da99324736","server":"7924","farm":8,"title":"IMG_20180812_151328","ispublic":1,"isfriend":0,"isfamily":0},{"id":"46429224615","owner":"97217080@N00","secret":"80648d5cae","server":"7873","farm":8,"title":"IMG_20190214_145329","ispublic":1,"isfriend":0,"isfamily":0},{"id":"40378887583","owner":"31154073@N05","secret":"c5010c61ae","server":"7851","farm":8,"title":"Giant Sphinx","ispublic":1,"isfriend":0,"isfamily":0},{"id":"40378861223","owner":"159740275@N03","secret":"7c2c1e7b00","server":"7890","farm":8,"title":"What is Kiwi thinking???","ispublic":1,"isfriend":0,"isfamily":0},{"id":"46620802784","owner":"145678835@N02","secret":"73339cec2e","server":"7893","farm":8,"title":"The Top Dog","ispublic":1,"isfriend":0,"isfamily":0},{"id":"32402054647","owner":"25165196@N08","secret":"b99b2c6af4","server":"7925","farm":8,"title":"Final Race At Dairyland Dog Track","ispublic":1,"isfriend":0,"isfamily":0},{"id":"47343976071","owner":"141683488@N04","secret":"4007e3f729","server":"7903","farm":8,"title":"2019 03 B Dog 3","ispublic":1,"isfriend":0,"isfamily":0},{"id":"40378740803","owner":"141683488@N04","secret":"e7c30f7e1b","server":"7831","farm":8,"title":"2019 03 B Dog 2","ispublic":1,"isfriend":0,"isfamily":0},{"id":"47343969361","owner":"141683488@N04","secret":"7f7446eabc","server":"7849","farm":8,"title":"2019 03 B Dog 1","ispublic":1,"isfriend":0,"isfamily":0},{"id":"46620718204","owner":"7349211@N06","secret":"72b3988f36","server":"7854","farm":8,"title":"pet me...","ispublic":1,"isfriend":0,"isfamily":0},{"id":"46429035195","owner":"52111728@N00","secret":"1ef5cabe5a","server":"7844","farm":8,"title":"","ispublic":1,"isfriend":0,"isfamily":0},{"id":"47291277412","owner":"51459032@N00","secret":"617aa49ded","server":"7843","farm":8,"title":"BEWARE OF DOG ~ Saint Joseph, Missouri USA","ispublic":1,"isfriend":0,"isfamily":0},{"id":"32401970997","owner":"153454946@N06","secret":"cff4b7a39d","server":"7877","farm":8,"title":"that MAGA thing.....the problem is the word \"Again\"","ispublic":1,"isfriend":0,"isfamily":0},{"id":"33467875158","owner":"52407821@N00","secret":"5269ae43b7","server":"7880","farm":8,"title":"Lazy Afternoon","ispublic":1,"isfriend":0,"isfamily":0},{"id":"40378685923","owner":"52407821@N00","secret":"e9c3eab5d8","server":"7812","farm":8,"title":"Paw","ispublic":1,"isfriend":0,"isfamily":0},{"id":"46620629444","owner":"33728228@N03","secret":"f9bdf4ddf9","server":"7852","farm":8,"title":"Cynder watches as over 100 dogs and their owners gather at Vancouver's largest dog meetup at Trout Lake Park.","ispublic":1,"isfriend":0,"isfamily":0},{"id":"46428408255","owner":"23452677@N08","secret":"9fff8bdbbc","server":"7804","farm":8,"title":"Collective Arts Collective Project: IPA Project #8 (All Dogs Go To Heaven)","ispublic":1,"isfriend":0,"isfamily":0},{"id":"47343824701","owner":"157624362@N07","secret":"4d205854d1","server":"7856","farm":8,"title":"Copyright \u00a9 2019. Agustina Checa Photography. All rights reserved. My images may not be used without my permission.","ispublic":1,"isfriend":0,"isfamily":0},{"id":"32401869677","owner":"129189488@N05","secret":"3225148720","server":"7913","farm":8,"title":"Dodge Ram 1500 Mark III LE Shorty High Top","ispublic":1,"isfriend":0,"isfamily":0},{"id":"33467784928","owner":"38066533@N02","secret":"1cf638cf9a","server":"7831","farm":8,"title":"\u2764\ufe0f\ud83d\udc15 part 2 of 5","ispublic":1,"isfriend":0,"isfamily":0},{"id":"33467765728","owner":"38066533@N02","secret":"d731378605","server":"7887","farm":8,"title":"\u2764\ufe0f\ud83d\udc15 part 3 of 5","ispublic":1,"isfriend":0,"isfamily":0},{"id":"46428886755","owner":"38066533@N02","secret":"a031dc21cd","server":"7811","farm":8,"title":"\u2764\ufe0f\ud83d\udc15 part 4 of 5","ispublic":1,"isfriend":0,"isfamily":0},{"id":"47343763211","owner":"38066533@N02","secret":"245503554f","server":"7909","farm":8,"title":"\u2764\ufe0f\ud83d\udc15 part 5 of 5","ispublic":1,"isfriend":0,"isfamily":0},{"id":"47343738201","owner":"24981460@N07","secret":"60225bb625","server":"7892","farm":8,"title":"The #puparazzi was out in force today in Malibu.   Great to see you @mayorofaustin!! If not for you, it\u2019s possible @althea_golden wouldn\u2019t even be in my life. Your love for Shiner and his gentle, calm nature was the beginning of my Golden journey.  Cannot","ispublic":1,"isfriend":0,"isfamily":0},{"id":"47343726931","owner":"25165196@N08","secret":"befe565f2f","server":"7811","farm":8,"title":"Old Views At the Dog Track","ispublic":1,"isfriend":0,"isfamily":0},{"id":"40378502763","owner":"25165196@N08","secret":"e49988b848","server":"7923","farm":8,"title":"An Afternoon At the Dog Track","ispublic":1,"isfriend":0,"isfamily":0},{"id":"33467697678","owner":"25165196@N08","secret":"d67cb32196","server":"7879","farm":8,"title":"Dairyland Pleasant Sunday Afternoon","ispublic":1,"isfriend":0,"isfamily":0},{"id":"46428830075","owner":"25165196@N08","secret":"56efb3e856","server":"7902","farm":8,"title":"Cash Sell Greyhound Bets","ispublic":1,"isfriend":0,"isfamily":0},{"id":"47291047312","owner":"73254911@N02","secret":"413f490038","server":"7823","farm":8,"title":"Static","ispublic":1,"isfriend":0,"isfamily":0},{"id":"5997704947","owner":"13455800@N05","secret":"192c5b25f0","server":"6030","farm":7,"title":"A King among Dogs.","ispublic":1,"isfriend":0,"isfamily":0},{"id":"32401758977","owner":"21608680@N00","secret":"19c63b327f","server":"7839","farm":8,"title":"Polar Bear Dog, Presidio Golf Course","ispublic":1,"isfriend":0,"isfamily":0},{"id":"47291051882","owner":"62265777@N05","secret":"7ea7e4bd2c","server":"7903","farm":8,"title":"Nap time","ispublic":1,"isfriend":0,"isfamily":0},{"id":"47291048012","owner":"26160580@N07","secret":"1076fd56ce","server":"7889","farm":8,"title":"Jara and Pistol","ispublic":1,"isfriend":0,"isfamily":0},{"id":"47344887821","owner":"58021843@N03","secret":"f228acafca","server":"7916","farm":8,"title":"Inhalation of Dinner","ispublic":1,"isfriend":0,"isfamily":0},{"id":"40379604753","owner":"58021843@N03","secret":"5f6a5657bf","server":"7891","farm":8,"title":"Post Day Spa","ispublic":1,"isfriend":0,"isfamily":0},{"id":"40379603323","owner":"58021843@N03","secret":"90e2941d2e","server":"7917","farm":8,"title":"Cult of the Ball","ispublic":1,"isfriend":0,"isfamily":0},{"id":"40379601463","owner":"58021843@N03","secret":"f5b12da8b6","server":"7913","farm":8,"title":"Second Dinner?","ispublic":1,"isfriend":0,"isfamily":0},{"id":"40379398273","owner":"148329134@N08","secret":"351b8abee6","server":"7891","farm":8,"title":"Dobby at the dog park","ispublic":1,"isfriend":0,"isfamily":0},{"id":"47291703102","owner":"46077852@N08","secret":"05893a4fa3","server":"7913","farm":8,"title":"My name is Brownie...","ispublic":1,"isfriend":0,"isfamily":0},{"id":"40378977853","owner":"13773319@N00","secret":"91bdb80e16","server":"7840","farm":8,"title":"10\/52\/19 Leaping the snowbank","ispublic":1,"isfriend":0,"isfamily":0},{"id":"32402207877","owner":"36592495@N02","secret":"15d022f868","server":"7923","farm":8,"title":"Whippet","ispublic":1,"isfriend":0,"isfamily":0},{"id":"32402207617","owner":"36592495@N02","secret":"9f62046b87","server":"7822","farm":8,"title":"Whippet","ispublic":1,"isfriend":0,"isfamily":0},{"id":"47343840811","owner":"38066533@N02","secret":"4809110829","server":"7871","farm":8,"title":"\u2764\ufe0f\ud83d\udc15  part 1 of 5","ispublic":1,"isfriend":0,"isfamily":0},{"id":"32401738737","owner":"156716779@N04","secret":"75cf04aa4e","server":"7802","farm":8,"title":"#LOOK 816# Somewhere Only We Know","ispublic":1,"isfriend":0,"isfamily":0}]},"stat":"ok"}